inst[0] = inst[0]
        #length
        inst[1] = (inst[1]-min_len)/(max_len-min_len)
        inst[2] = (inst[2]-min_di)/(max_di-min_di)
        inst[3] = (inst[3]-min_h)/(max_h-min_h)
        inst[4] = (inst[4]-min_ww)/(max_ww-min_ww)
        inst[5] = (inst[5]-min_di)/(max_di-min_di)
        inst[6] = (inst[6]-min_di)/(max_di-min_di)
        inst[7] = (inst[7]-min_di)/(max_di-min_di)



min_len = min(x[1] for x in data)
    max_len = max(x[1] for x in data)

    min_di = min(x[2] for x in data)
    max_di = max(x[2] for x in data)

    min_h = min(x[3] for x in data)
    max_h = max(x[3] for x in data)

    min_ww = min(x[4] for x in data)
    max_ww = max(x[4] for x in data)

    min_sw = min(x[5] for x in data)
    max_sw = max(x[5] for x in data)

    min_visw = min(x[6] for x in data)
    max_visw = max(x[6] for x in data)
    
    min_shw = min(x[7] for x in data)
    max_shw = max(x[7] for x in data)
